{
  "name": "icons",
  "css_prefix_text": "icon-",
  "css_use_suffix": false,
  "hinting": true,
  "units_per_em": 1000,
  "ascent": 850,
  "glyphs": [
    {
      "uid": "aec47313ed60b45181173a798d5cf25b",
      "css": "checkbox",
      "code": 59392,
      "src": "custom_icons",
      "selected": true,
      "svg": {
        "path": "M888.9 111.1V888.9H111.1V111.1H888.9M888.9 0H111.1C50 0 0 50 0 111.1V888.9C0 950 50 1000 111.1 1000H888.9C950 1000 1000 950 1000 888.9V111.1C1000 50 950 0 888.9 0L888.9 0Z",
        "width": 1000
      },
      "search": [
        "checkbox"
      ]
    },
    {
      "uid": "e1c76be7f83e2f83ed8b1e6e449c709c",
      "css": "checkbox-checked",
      "code": 59393,
      "src": "custom_icons",
      "selected": true,
      "svg": {
        "path": "M272.2 394.4L194.4 472.2 444.4 722.2 1000 166.7 922.2 88.9 444.4 566.7 272.2 394.4ZM888.9 888.9H111.1V111.1H666.7V0H111.1C50 0 0 50 0 111.1V888.9C0 950 50 1000 111.1 1000H888.9C950 1000 1000 950 1000 888.9V444.4H888.9V888.9Z",
        "width": 1000
      },
      "search": [
        "checkbox-checked"
      ]
    },
    {
      "uid": "97c0ee2bff1fb25078ce15f4fe963944",
      "css": "radio",
      "code": 59394,
      "src": "custom_icons",
      "selected": true,
      "svg": {
        "path": "M500 0C225 0 0 225 0 500S225 1000 500 1000 1000 775 1000 500 775 0 500 0ZM500 900C280 900 100 720 100 500S280 100 500 100 900 280 900 500 720 900 500 900Z",
        "width": 1000
      },
      "search": [
        "radio"
      ]
    },
    {
      "uid": "453d845f85df02fbafca597181130dd3",
      "css": "radio-checked",
      "code": 59395,
      "src": "custom_icons",
      "selected": true,
      "svg": {
        "path": "M500 250C360 250 250 360 250 500 250 640 360 750 500 750 640 750 750 640 750 500 750 360 640 250 500 250ZM500 0C225 0 0 225 0 500S225 1000 500 1000 1000 775 1000 500 775 0 500 0ZM500 900C280 900 100 720 100 500S280 100 500 100 900 280 900 500 720 900 500 900Z",
        "width": 1000
      },
      "search": [
        "radio-checked"
      ]
    },
    {
      "uid": "e82cedfa1d5f15b00c5a81c9bd731ea2",
      "css": "info-circled",
      "code": 59396,
      "src": "fontawesome"
    },
    {
      "uid": "b035c28eba2b35c6ffe92aee8b0df507",
      "css": "attention-circled",
      "code": 59397,
      "src": "fontawesome"
    },
    {
      "uid": "c76b7947c957c9b78b11741173c8349b",
      "css": "attention",
      "code": 59398,
      "src": "fontawesome"
    },
    {
      "uid": "0f4cae16f34ae243a6144c18a003f2d8",
      "css": "cancel-circled",
      "code": 59399,
      "src": "fontawesome"
    },
    {
      "uid": "e335adbc2d898c7d85d40c507796e7b4",
      "css": "mail",
      "code": 59400,
      "src": "entypo"
    },
    {
      "uid": "9f7e588c66cfd6891f6f507cf6f6596b",
      "css": "phone",
      "code": 59401,
      "src": "fontawesome"
    },
    {
      "uid": "6274e0601f2feef7eced89146e708de0",
      "css": "user-add",
      "code": 59402,
      "src": "entypo"
    },
    {
      "uid": "2d76f2c8d13be40694ecadfea7fb83c3",
      "css": "logout",
      "code": 59403,
      "src": "entypo"
    },
    {
      "uid": "9dd9e835aebe1060ba7190ad2b2ed951",
      "css": "search",
      "code": 59404,
      "src": "fontawesome"
    },
    {
      "uid": "e126987944593dfee041f8e2a68145db",
      "css": "basket",
      "code": 59405,
      "src": "entypo"
    },
    {
      "uid": "513ac180ff85bd275f2b736720cbbf5e",
      "css": "home",
      "code": 59406,
      "src": "entypo"
    },
    {
      "uid": "2cfb3f2b46b34a1790aec0aa846297b6",
      "css": "menu",
      "code": 59407,
      "src": "entypo"
    },
    {
      "uid": "922ab2cb66943a83de969990289ef1dc",
      "css": "docs",
      "code": 59408,
      "src": "entypo"
    },
    {
      "uid": "a204f0fa972408eaae5a363c444991b2",
      "css": "login",
      "code": 59409,
      "src": "entypo"
    },
    {
      "uid": "d4939d1f4e5f03f6e58900b2ac8f1c6c",
      "css": "thermometer",
      "code": 59410,
      "src": "entypo"
    },
    {
      "uid": "289b5f92f23acf1059c93fbf401c1ad5",
      "css": "down-open-big",
      "code": 59411,
      "src": "entypo"
    },
    {
      "uid": "884cfc3e6e2d456dd2a2ca0dbb9e6337",
      "css": "left-open-big",
      "code": 59412,
      "src": "entypo"
    },
    {
      "uid": "004882ab2d5c418c5b2060e80596279b",
      "css": "right-open-big",
      "code": 59413,
      "src": "entypo"
    },
    {
      "uid": "0805cca616b3c12714f35af4d0912c10",
      "css": "up-open-big",
      "code": 59414,
      "src": "entypo"
    },
    {
      "uid": "a66cdc7278e6b33b8bd44a141f5e1a8d",
      "css": "plus-circled",
      "code": 59415,
      "src": "entypo"
    },
    {
      "uid": "0357f7abbc0babf43509669f332e41e6",
      "css": "mobile",
      "code": 61707,
      "src": "fontawesome"
    },
    {
      "uid": "500fc1f109021e4b1de4deda2f7ed399",
      "css": "laptop",
      "code": 61705,
      "src": "fontawesome"
    },
    {
      "uid": "db112402805d9dadc01ce009fbfdb914",
      "css": "paper-plane",
      "code": 59416,
      "src": "entypo"
    },
    {
      "uid": "14017aae737730faeda4a6fd8fb3a5f0",
      "css": "check",
      "code": 59417,
      "src": "entypo"
    },
    {
      "uid": "5717236f6134afe2d2a278a5c9b3927a",
      "css": "play-circled",
      "code": 61764,
      "src": "fontawesome"
    },
    {
      "uid": "dd492243d64e21dfe16a92452f7861cb",
      "css": "th-large",
      "code": 59418,
      "src": "fontawesome"
    },
    {
      "uid": "b1887b423d2fd15c345e090320c91ca0",
      "css": "th",
      "code": 59419,
      "src": "fontawesome"
    },
    {
      "uid": "f805bb95d40c7ef2bc51b3d50d4f2e5c",
      "css": "th-list",
      "code": 59420,
      "src": "fontawesome"
    },
    {
      "uid": "5211af474d3a9848f67f945e2ccaf143",
      "css": "cancel",
      "code": 59421,
      "src": "fontawesome"
    },
    {
      "uid": "bbd66ef66bb8fa9edde54d9a90b89150",
      "css": "user",
      "code": 59422,
      "src": "entypo"
    },
    {
      "uid": "c709da589c923ba3c2ad48d9fc563e93",
      "css": "cancel-1",
      "code": 59423,
      "src": "entypo"
    },
    {
      "uid": "3eb93689881ad0804f87052a53edc2b6",
      "css": "minus-circled",
      "code": 59424,
      "src": "entypo"
    },
    {
      "uid": "592717bd601645d61517d2a584d04127",
      "css": "left-open-mini",
      "code": 59425,
      "src": "entypo"
    },
    {
      "uid": "37f6cfbb4062ed0d01b351ec35c334ff",
      "css": "right-open-mini",
      "code": 59426,
      "src": "entypo"
    },
    {
      "uid": "9e251fb8e9e1c71ab09683468e0479a3",
      "css": "up-open-mini",
      "code": 59427,
      "src": "entypo"
    },
    {
      "uid": "f11c9e95ae5eaa84d193e8fa1d38c6f9",
      "css": "down-open-mini",
      "code": 59428,
      "src": "entypo"
    }
  ]
}